0,3946.0,459.0
1,3945.0,459.0
2,3600.0,513.0
3,3600.0,460.0
4,3504.0,301.0
5,3765.0,155.0
6,3765.0,154.0
7,3538.0,125.0
8,3063.0,328.0
9,2994.0,264.0
10,2593.0,248.0
11,2618.0,125.0
12,2622.0,125.0
13,2627.0,354.0
14,2626.0,355.0
15,2348.0,388.0
16,2334.0,523.0
17,2333.0,523.0
18,1962.0,390.0
19,1530.0,581.0
20,1250.0,758.0
21,982.0,848.0
22,981.0,848.0
23,1008.0,954.0
24,1010.0,998.0
25,1110.0,1196.0
26,1676.0,1239.0
27,1699.0,1293.0
28,1700.0,1294.0
29,2221.0,1577.0
30,2355.0,1568.0
31,2355.0,1568.0
32,2221.0,1578.0
33,1769.0,1578.0
34,1768.0,1578.0
35,1628.0,1732.0
36,1628.0,1732.0
37,1629.0,1733.0
38,2027.0,1736.0
39,2028.0,1736.0
40,2023.0,1842.0
41,2023.0,1843.0
42,2214.0,1976.0
43,2374.0,1944.0
44,2375.0,1943.0
45,2833.0,1513.0
46,3006.0,1524.0
47,3007.0,1525.0
48,2928.0,1777.0
49,3241.0,1914.0
50,3226.0,1936.0
51,3243.0,1915.0
52,3373.0,1902.0
53,3785.0,1862.0
54,3805.0,1619.0
55,3805.0,1619.0
56,3785.0,1862.0
57,3373.0,1902.0
58,3227.0,1936.0
59,3226.0,1936.0
60,3241.0,1914.0
61,2928.0,1777.0
62,3006.0,1525.0
63,2835.0,1512.0
64,2833.0,1513.0
65,2375.0,1943.0
66,2214.0,1977.0
67,2213.0,1977.0
68,2023.0,1843.0
69,2022.0,1842.0
70,2022.0,1842.0
71,2020.0,1843.0
72,1787.0,1902.0
73,1787.0,1902.0
74,1646.0,1817.0
75,1628.0,1733.0
76,1627.0,1732.0
77,1627.0,1732.0
78,1628.0,1733.0
79,1644.0,1817.0
80,574.0,1982.0
81,571.0,1982.0
82,570.0,1982.0
83,395.0,1944.0
84,394.0,1944.0
85,394.0,1944.0
86,395.0,1943.0
87,554.0,1753.0
88,386.0,1616.0
89,150.0,1629.0
90,80.0,1533.0
91,80.0,1533.0
92,80.0,1533.0
93,149.0,1629.0
94,150.0,1629.0
95,386.0,1616.0
96,556.0,1752.0
97,1081.0,1561.0
98,1081.0,1560.0
99,796.0,1289.0
100,794.0,1288.0
101,793.0,1288.0
102,465.0,1302.0
103,555.0,1121.0
104,401.0,980.0
105,239.0,1064.0
106,238.0,1064.0
107,238.0,1064.0
108,238.0,1064.0
109,238.0,1064.0
110,238.0,1064.0
111,239.0,1064.0
112,401.0,980.0
113,555.0,1121.0
114,465.0,1302.0
115,793.0,1288.0
116,795.0,1288.0
117,1108.0,1196.0
118,1010.0,998.0
119,1010.0,997.0
120,1009.0,956.0
121,1009.0,955.0
122,1009.0,955.0
123,1009.0,955.0
124,1009.0,955.0
125,1009.0,955.0
126,1009.0,956.0
127,1209.0,967.0
128,1053.0,1080.0
129,1677.0,1239.0
130,1679.0,1239.0
131,2484.0,781.0
132,2066.0,695.0
133,1828.0,456.0
134,1541.0,354.0
135,1346.0,408.0
136,1018.0,334.0
137,931.0,512.0
138,780.0,670.0
139,241.0,619.0
140,48.0,363.0
141,202.0,233.0
142,279.0,166.0
143,366.0,339.0
144,633.0,294.0
145,633.0,294.0
146,460.0,267.0
147,387.0,199.0
148,279.0,165.0
149,264.0,37.0
150,265.0,36.0
151,546.0,25.0
152,546.0,25.0
153,265.0,36.0
154,264.0,37.0
155,279.0,165.0
156,387.0,199.0
157,460.0,267.0
158,633.0,294.0
159,633.0,294.0
160,366.0,339.0
161,279.0,166.0
162,202.0,233.0
163,48.0,363.0
164,241.0,619.0
165,780.0,670.0
166,931.0,512.0
167,1017.0,334.0
168,1017.0,333.0
169,1018.0,333.0
170,1203.0,385.0
171,1203.0,385.0
172,1272.0,246.0
173,1272.0,246.0
174,1346.0,408.0
175,1540.0,354.0
176,1542.0,354.0
177,1960.0,389.0
178,1828.0,456.0
179,1530.0,581.0
180,1604.0,706.0
181,1765.0,685.0
182,1766.0,685.0
183,1766.0,685.0
184,1766.0,686.0
185,1726.0,927.0
186,1726.0,927.0
187,1965.0,758.0
188,2066.0,694.0
189,1767.0,685.0
190,1765.0,685.0
191,1604.0,706.0
192,1531.0,581.0
193,1962.0,390.0
194,2333.0,522.0
195,2348.0,388.0
196,2626.0,355.0
197,2628.0,355.0
198,2627.0,354.0
199,2621.0,125.0
200,2617.0,124.0
201,2616.0,124.0
202,2617.0,125.0
203,2593.0,248.0
204,2994.0,264.0
205,3063.0,328.0
206,3538.0,125.0
207,3765.0,154.0
208,3765.0,155.0
209,3504.0,301.0
210,3600.0,460.0
211,3600.0,513.0
212,3945.0,459.0
213,3946.0,459.0
214,3935.0,540.0
215,3868.0,696.0
216,3867.0,697.0
217,3642.0,699.0
218,3453.0,637.0
219,3450.0,637.0
220,2971.0,628.0
221,2968.0,628.0
222,2968.0,629.0
223,3060.0,781.0
224,3023.0,871.0
225,2907.0,923.0
226,2740.0,1101.0
227,2740.0,1101.0
228,2978.0,948.0
229,2980.0,948.0
230,3332.0,1049.0
231,3917.0,1217.0
232,3917.0,1217.0
233,3535.0,1112.0
234,3332.0,1049.0
235,2980.0,948.0
236,2907.0,922.0
237,2907.0,922.0
238,2907.0,922.0
239,3023.0,871.0
240,3060.0,781.0
241,2968.0,629.0
242,2968.0,628.0
243,2971.0,628.0
244,3450.0,637.0
245,3453.0,637.0
246,3642.0,699.0
247,3867.0,697.0
248,3868.0,696.0
249,3935.0,540.0
,,,Distance,41257.55687
