0,0.77272,0.38615
1,0.77274,0.3864
2,0.76328,0.43221
3,0.7632,0.43236
4,0.73314,0.45799
5,0.73294,0.45835
6,0.69077,0.54964
7,0.69081,0.54967
8,0.75164,0.47168
9,0.73321,0.45818
10,0.75185,0.47146
11,0.75268,0.47214
12,0.89356,0.44063
13,0.83916,0.6452
14,0.99236,0.60861
15,0.99256,0.60939
16,0.96389,0.8141
17,0.96383,0.81476
18,0.95897,0.93843
19,0.95875,0.93872
20,0.85316,0.95909
21,0.85288,0.95914
22,0.8198,0.96482
23,0.81574,0.97574
24,0.81564,0.97602
25,0.81564,0.97602
26,0.81574,0.97575
27,0.81962,0.96495
28,0.81923,0.96407
29,0.83703,0.9102
30,0.75896,0.76633
31,0.75917,0.76597
32,0.75904,0.76595
33,0.71493,0.75985
34,0.7148,0.75984
35,0.71444,0.75992
36,0.59238,0.78879
37,0.5968,0.98001
38,0.5967,0.98063
39,0.55591,0.99739
40,0.55579,0.99744
41,0.55591,0.99739
42,0.59658,0.98008
43,0.55781,0.79391
44,0.59198,0.78848
45,0.55749,0.79354
46,0.44163,0.79356
47,0.44132,0.79372
48,0.40547,0.87216
49,0.40536,0.87251
50,0.40536,0.87251
51,0.40572,0.87254
52,0.50788,0.87429
53,0.50808,0.87441
54,0.50682,0.92837
55,0.50659,0.92869
56,0.50658,0.92869
57,0.50658,0.92869
58,0.50658,0.92869
59,0.50592,0.92911
60,0.44639,0.95906
61,0.4462,0.95903
62,0.41017,0.91568
63,0.40539,0.87271
64,0.40536,0.87251
65,0.40539,0.87271
66,0.40955,0.91576
67,0.13522,0.99975
68,0.1344,1.0
69,0.13426,0.99994
70,0.08918,0.98066
71,0.089,0.98058
72,0.089,0.98058
73,0.08916,0.9802
74,0.13012,0.88304
75,0.08691,0.81313
76,0.02629,0.81946
77,0.00852,0.77071
78,0.00846,0.77057
79,0.00852,0.77071
80,0.02611,0.81948
81,0.02634,0.8196
82,0.08691,0.81313
83,0.13047,0.88265
84,0.26518,0.78507
85,0.26531,0.7846
86,0.192,0.64606
87,0.19171,0.64563
88,0.19145,0.6456
89,0.10717,0.65233
90,0.13017,0.56008
91,0.09079,0.48822
92,0.04911,0.53078
93,0.04899,0.53092
94,0.04899,0.53092
95,0.04899,0.53092
96,0.04899,0.53092
97,0.04911,0.53078
98,0.09079,0.48822
99,0.13017,0.56008
100,0.10717,0.65233
101,0.19145,0.6456
102,0.19193,0.64553
103,0.27227,0.59839
104,0.27239,0.59808
105,0.24695,0.49762
106,0.24691,0.49723
107,0.24678,0.47658
108,0.24671,0.47614
109,0.24655,0.47529
110,0.23977,0.42066
111,0.3449,0.42615
112,0.34521,0.42616
113,0.3449,0.42615
114,0.23977,0.42066
115,0.24655,0.47529
116,0.24671,0.47613
117,0.24672,0.47615
118,0.24693,0.4764
119,0.27643,0.48805
120,0.36566,0.52981
121,0.41776,0.62013
122,0.42359,0.64789
123,0.42361,0.64798
124,0.42359,0.64789
125,0.41817,0.62038
126,0.41856,0.61987
127,0.55781,0.49335
128,0.55784,0.49304
129,0.43062,0.46097
130,0.43038,0.46078
131,0.47433,0.40833
132,0.44077,0.33746
133,0.39938,0.34783
134,0.38038,0.28411
135,0.45649,0.22026
136,0.38324,0.16835
137,0.33317,0.19562
138,0.29662,0.18384
139,0.31402,0.11316
140,0.24898,0.15725
141,0.24872,0.15766
142,0.22669,0.24883
143,0.18805,0.32937
144,0.04968,0.30332
145,1.8E-4,0.17284
146,0.0396,0.10654
147,0.03993,0.10649
148,0.08187,0.16029
149,0.15028,0.13755
150,0.15037,0.1374
151,0.10597,0.1236
152,0.08713,0.08892
153,0.05963,0.07179
154,0.05948,0.07145
155,0.05581,0.00574
156,0.12802,2.0E-5
157,0.12824,0.0
158,0.12802,2.0E-5
159,0.05581,0.00574
160,0.05948,0.07145
161,0.05963,0.07179
162,0.08713,0.08892
163,0.10597,0.1236
164,0.15037,0.1374
165,0.15028,0.13755
166,0.08187,0.16029
167,0.03993,0.10649
168,0.0396,0.10654
169,1.8E-4,0.17284
170,0.04968,0.30332
171,0.18805,0.32937
172,0.22669,0.24883
173,0.24886,0.15774
174,0.29645,0.18377
175,0.31419,0.11323
176,0.3332,0.19548
177,0.38303,0.1682
178,0.3835,0.16817
179,0.49094,0.18596
180,0.49108,0.18607
181,0.4567,0.22029
182,0.38033,0.28392
183,0.38016,0.2843
184,0.39938,0.34783
185,0.44077,0.33728
186,0.44088,0.33725
187,0.44088,0.33725
188,0.44107,0.33726
189,0.51793,0.34184
190,0.51822,0.34168
191,0.58636,0.25473
192,0.58656,0.25447
193,0.58657,0.25427
194,0.58989,0.18562
195,0.59004,0.18545
196,0.66129,0.1683
197,0.66188,0.16838
198,0.66188,0.16838
199,0.66169,0.16816
200,0.65276,0.11393
201,0.65969,0.05107
202,0.65944,0.05083
203,0.65943,0.05082
204,0.65943,0.05082
205,0.65944,0.05083
206,0.65969,0.05107
207,0.65276,0.11393
208,0.66169,0.16817
209,0.66261,0.16841
210,0.75592,0.12225
211,0.75614,0.12222
212,0.77323,0.15524
213,0.77348,0.15528
214,0.88617,0.14088
215,0.89533,0.05137
216,0.89553,0.05114
217,0.95366,0.06587
218,0.95383,0.06592
219,0.95366,0.06587
220,0.89551,0.05141
221,0.88645,0.14102
222,0.9112,0.22205
223,0.91101,0.24864
224,0.91144,0.22224
225,0.99965,0.22178
226,0.99999,0.22194
227,0.99719,0.26303
228,0.99718,0.26315
229,0.99719,0.26303
230,0.99999,0.22194
231,0.99965,0.22189
232,0.91127,0.24875
233,0.9109,0.24911
234,0.87356,0.31263
235,0.92205,0.34434
236,0.97976,0.34339
237,0.97999,0.34338
238,0.97999,0.34338
239,0.97976,0.34339
240,0.92205,0.34434
241,0.87345,0.31282
242,0.87293,0.31271
243,0.74998,0.30806
244,0.74926,0.30814
245,0.74925,0.30814
246,0.74925,0.30814
247,0.74925,0.30814
248,0.74925,0.30814
249,0.74933,0.30841
,,,Distance,11.04622
