0,-16814.0,8260.0
1,-17134.0,8464.0
2,-16862.0,7977.0
3,-15852.0,6896.0
4,-13962.0,5384.0
5,-11147.0,3641.0
6,-7543.0,1874.0
7,-3493.0,261.0
8,513.0,-1073.0
9,3976.0,-2072.0
10,6536.0,-2745.0
11,8073.0,-3146.0
12,8708.0,-3348.0
13,8723.0,-3426.0
14,8453.0,-3439.0
15,8177.0,-3429.0
16,8070.0,-3419.0
17,8195.0,-3399.0
18,8517.0,-3328.0
19,8937.0,-3122.0
20,9317.0,-2670.0
21,9513.0,-1849.0
22,9422.0,-570.0
23,9033.0,1173.0
24,8471.0,3268.0
25,7992.0,5481.0
26,7926.0,7501.0
27,8586.0,9020.0
28,10173.0,9807.0
29,12726.0,9778.0
30,16116.0,9009.0
31,20090.0,7725.0
32,24319.0,6239.0
33,28454.0,4889.0
34,32161.0,3962.0
35,35136.0,3653.0
36,37117.0,4032.0
37,37893.0,5053.0
38,37339.0,6573.0
39,35452.0,8385.0
40,32397.0,10248.0
41,28516.0,11923.0
42,24302.0,13191.0
43,20324.0,13881.0
44,17112.0,13892.0
45,15055.0,13210.0
46,14319.0,11916.0
47,14835.0,10176.0
48,16332.0,8209.0
49,18417.0,6244.0
50,20663.0,4475.0
51,22685.0,3024.0
52,24195.0,1936.0
53,25031.0,1183.0
54,25167.0,692.0
55,24697.0,376.0
56,23805.0,151.0
57,22708.0,-39.0
58,21607.0,-223.0
59,20633.0,-397.0
60,19836.0,-542.0
61,19192.0,-629.0
62,18644.0,-639.0
63,18142.0,-573.0
64,17679.0,-455.0
65,17291.0,-325.0
66,17037.0,-224.0
67,16964.0,-182.0
68,17082.0,-208.0
69,17356.0,-287.0
70,17711.0,-396.0
71,18045.0,-512.0
72,18225.0,-625.0
73,18091.0,-740.0
74,17461.0,-877.0
75,16171.0,-1056.0
76,14145.0,-1289.0
77,11450.0,-1572.0
78,8319.0,-1881.0
79,5098.0,-2178.0
80,2144.0,-2423.0
81,-295.0,-2576.0
82,-2130.0,-2602.0
83,-3386.0,-2450.0
84,-4073.0,-2045.0
85,-4064.0,-1299.0
86,-3158.0,-171.0
87,-1341.0,1254.0
88,1031.0,2740.0
89,3424.0,3986.0
90,5486.0,4743.0
91,7210.0,4888.0
92,8808.0,4424.0
93,10507.0,3460.0
94,12421.0,2177.0
95,14510.0,797.0
96,16600.0,-449.0
97,18426.0,-1355.0
98,19685.0,-1775.0
99,20104.0,-1651.0
100,19502.0,-1023.0
101,17840.0,-18.0
102,15236.0,1177.0
103,11936.0,2363.0
104,8264.0,3367.0
105,4550.0,4075.0
106,1071.0,4449.0
107,-1984.0,4514.0
108,-4523.0,4337.0
109,-6539.0,4001.0
110,-8084.0,3576.0
111,-9245.0,3107.0
112,-10120.0,2611.0
113,-10808.0,2080.0
114,-11397.0,1493.0
115,-11960.0,825.0
116,-12549.0,58.0
117,-13184.0,-819.0
118,-13837.0,-1801.0
119,-14416.0,-2866.0
120,-14763.0,-3979.0
121,-14663.0,-5092.0
122,-13883.0,-6144.0
123,-12228.0,-7069.0
124,-9609.0,-7811.0
125,-6094.0,-8330.0
126,-1931.0,-8614.0
127,2484.0,-8683.0
128,6681.0,-8584.0
129,10212.0,-8372.0
130,12752.0,-8095.0
131,14160.0,-7779.0
132,14486.0,-7425.0
133,13917.0,-7016.0
134,12691.0,-6534.0
135,11007.0,-5976.0
136,8962.0,-5363.0
137,6541.0,-4736.0
138,3655.0,-4147.0
139,208.0,-3646.0
140,-3819.0,-3261.0
141,-8316.0,-2994.0
142,-13015.0,-2818.0
143,-17516.0,-2670.0
144,-21339.0,-2469.0
145,-24004.0,-2122.0
146,-25117.0,-1545.0
147,-24443.0,-691.0
148,-21966.0,424.0
149,-17909.0,1711.0
150,-12723.0,3005.0
151,-7023.0,4100.0
152,-1514.0,4795.0
153,3059.0,4947.0
154,5834.0,4526.0
155,5653.0,3727.0
156,1716.0,2891.0
157,-3885.0,1014.0
158,-8591.0,-34.0
159,-9452.0,-136.0
160,-8645.0,418.0
161,-8011.0,1363.0
162,-7638.0,2493.0
163,-7019.0,3623.0
164,-5733.0,4581.0
165,-3631.0,5229.0
166,-853.0,5501.0
167,2254.0,5421.0
168,5259.0,5096.0
169,7747.0,4688.0
170,9394.0,4361.0
171,9994.0,4241.0
172,9470.0,4380.0
173,7859.0,4752.0
174,5300.0,5264.0
175,2014.0,5794.0
176,-1707.0,6235.0
177,-5524.0,6530.0
178,-9077.0,6690.0
179,-12019.0,6786.0
180,-14057.0,6914.0
181,-14971.0,7159.0
182,-14643.0,7549.0
183,-13054.0,8041.0
184,-10289.0,8523.0
185,-6543.0,8843.0
186,-2127.0,8849.0
187,2540.0,8438.0
188,6946.0,7589.0
189,10555.0,6370.0
190,12881.0,4922.0
191,13605.0,3436.0
192,12784.0,2234.0
193,11872.0,2756.0
194,13522.0,8979.0
195,-14520.0,698.0
196,-6765.0,-837.0
197,-6417.0,-1114.0
198,-8297.0,-1302.0
199,-9284.0,-1467.0
200,-8982.0,-1549.0
201,-7690.0,-1426.0
202,-5936.0,-964.0
203,-4250.0,-100.0
204,-2986.0,1055.0
205,-2275.0,2180.0
206,-2081.0,2845.0
207,-2279.0,2727.0
208,-3063.0,1583.0
209,-6243.0,-1436.0
210,-12875.0,-6669.0
211,-1901.0,-3067.0
212,5767.0,-869.0
213,11020.0,732.0
214,15252.0,2537.0
215,18309.0,4303.0
216,19976.0,5664.0
217,20354.0,6443.0
218,19767.0,6633.0
219,18617.0,6309.0
220,17273.0,5563.0
221,16007.0,4476.0
222,14960.0,3125.0
223,14149.0,1589.0
224,13488.0,-30.0
225,12822.0,-1614.0
226,11966.0,-3027.0
227,10750.0,-4144.0
228,9068.0,-4871.0
229,6918.0,-5175.0
230,4418.0,-5089.0
231,1790.0,-4723.0
232,-685.0,-4237.0
233,-2729.0,-3813.0
234,-4130.0,-3614.0
235,-4783.0,-3742.0
236,-4709.0,-4210.0
237,-4055.0,-4932.0
238,-3075.0,-5742.0
239,-2096.0,-6430.0
240,-1459.0,-6790.0
241,-1448.0,-6662.0
242,-2220.0,-5963.0
243,-3763.0,-4690.0
244,-5899.0,-2917.0
245,-8338.0,-780.0
246,-10769.0,1534.0
247,-12940.0,3808.0
248,-14699.0,5817.0
249,-15993.0,7352.0
,,,Distance,583335.1984
