0,3060.0,781.0
1,3060.0,781.0
2,3023.0,871.0
3,3023.0,871.0
4,2906.0,921.0
5,2905.0,922.0
6,2740.0,1101.0
7,2740.0,1101.0
8,2978.0,948.0
9,2906.0,922.0
10,2978.0,948.0
11,2982.0,949.0
12,3531.0,887.0
13,3319.0,1288.0
14,3916.0,1216.0
15,3917.0,1218.0
16,3805.0,1618.0
17,3805.0,1619.0
18,3786.0,1862.0
19,3785.0,1862.0
20,3373.0,1902.0
21,3372.0,1902.0
22,3243.0,1913.0
23,3228.0,1935.0
24,3227.0,1935.0
25,3227.0,1935.0
26,3228.0,1935.0
27,3243.0,1913.0
28,3241.0,1912.0
29,3311.0,1806.0
30,3006.0,1525.0
31,3007.0,1524.0
32,3006.0,1524.0
33,2835.0,1512.0
34,2834.0,1512.0
35,2833.0,1512.0
36,2357.0,1569.0
37,2374.0,1943.0
38,2374.0,1944.0
39,2214.0,1977.0
40,2214.0,1977.0
41,2214.0,1977.0
42,2373.0,1943.0
43,2222.0,1579.0
44,2355.0,1568.0
45,2221.0,1578.0
46,1769.0,1578.0
47,1768.0,1578.0
48,1628.0,1732.0
49,1627.0,1732.0
50,1628.0,1732.0
51,1629.0,1733.0
52,2027.0,1736.0
53,2028.0,1736.0
54,2023.0,1842.0
55,2022.0,1842.0
56,2022.0,1842.0
57,2022.0,1842.0
58,2022.0,1842.0
59,2020.0,1843.0
60,1787.0,1902.0
61,1787.0,1902.0
62,1646.0,1817.0
63,1628.0,1733.0
64,1627.0,1733.0
65,1628.0,1733.0
66,1644.0,1817.0
67,574.0,1982.0
68,571.0,1982.0
69,570.0,1982.0
70,395.0,1944.0
71,394.0,1944.0
72,394.0,1944.0
73,395.0,1943.0
74,554.0,1753.0
75,386.0,1616.0
76,150.0,1629.0
77,80.0,1533.0
78,80.0,1533.0
79,80.0,1533.0
80,149.0,1629.0
81,150.0,1629.0
82,386.0,1616.0
83,556.0,1752.0
84,1081.0,1561.0
85,1081.0,1560.0
86,796.0,1289.0
87,794.0,1288.0
88,793.0,1288.0
89,465.0,1302.0
90,555.0,1121.0
91,401.0,980.0
92,238.0,1064.0
93,238.0,1064.0
94,238.0,1064.0
95,238.0,1064.0
96,238.0,1064.0
97,238.0,1064.0
98,401.0,980.0
99,555.0,1121.0
100,465.0,1302.0
101,793.0,1288.0
102,795.0,1288.0
103,1109.0,1196.0
104,1109.0,1195.0
105,1010.0,999.0
106,1010.0,998.0
107,1009.0,958.0
108,1009.0,957.0
109,1008.0,955.0
110,982.0,848.0
111,1392.0,859.0
112,1393.0,859.0
113,1392.0,859.0
114,982.0,848.0
115,1008.0,955.0
116,1009.0,957.0
117,1009.0,957.0
118,1010.0,957.0
119,1125.0,980.0
120,1473.0,1062.0
121,1676.0,1239.0
122,1699.0,1293.0
123,1699.0,1293.0
124,1699.0,1293.0
125,1677.0,1239.0
126,1679.0,1238.0
127,2222.0,990.0
128,2222.0,990.0
129,1726.0,927.0
130,1725.0,927.0
131,1896.0,824.0
132,1766.0,685.0
133,1604.0,706.0
134,1530.0,581.0
135,1827.0,456.0
136,1541.0,354.0
137,1346.0,408.0
138,1204.0,385.0
139,1271.0,246.0
140,1018.0,333.0
141,1017.0,334.0
142,931.0,512.0
143,780.0,670.0
144,241.0,619.0
145,48.0,363.0
146,201.0,233.0
147,203.0,233.0
148,366.0,339.0
149,633.0,294.0
150,633.0,294.0
151,460.0,267.0
152,387.0,199.0
153,280.0,165.0
154,279.0,165.0
155,265.0,36.0
156,546.0,25.0
157,547.0,25.0
158,546.0,25.0
159,265.0,36.0
160,279.0,165.0
161,280.0,165.0
162,387.0,199.0
163,460.0,267.0
164,633.0,294.0
165,633.0,294.0
166,366.0,339.0
167,203.0,233.0
168,201.0,233.0
169,48.0,363.0
170,241.0,619.0
171,780.0,670.0
172,931.0,512.0
173,1017.0,334.0
174,1203.0,385.0
175,1272.0,247.0
176,1346.0,408.0
177,1540.0,354.0
178,1542.0,354.0
179,1961.0,389.0
180,1962.0,389.0
181,1828.0,456.0
182,1530.0,581.0
183,1529.0,581.0
184,1604.0,706.0
185,1766.0,685.0
186,1766.0,685.0
187,1766.0,685.0
188,1767.0,685.0
189,2066.0,694.0
190,2068.0,694.0
191,2333.0,524.0
192,2334.0,523.0
193,2334.0,523.0
194,2347.0,388.0
195,2348.0,388.0
196,2625.0,354.0
197,2628.0,355.0
198,2628.0,355.0
199,2627.0,354.0
200,2592.0,248.0
201,2619.0,125.0
202,2618.0,124.0
203,2618.0,124.0
204,2618.0,124.0
205,2618.0,124.0
206,2619.0,125.0
207,2592.0,248.0
208,2627.0,354.0
209,2631.0,355.0
210,2994.0,264.0
211,2995.0,264.0
212,3062.0,329.0
213,3063.0,329.0
214,3502.0,301.0
215,3538.0,126.0
216,3539.0,125.0
217,3765.0,154.0
218,3766.0,154.0
219,3765.0,154.0
220,3539.0,126.0
221,3503.0,301.0
222,3600.0,460.0
223,3599.0,512.0
224,3601.0,460.0
225,3945.0,459.0
226,3946.0,459.0
227,3935.0,540.0
228,3935.0,540.0
229,3935.0,540.0
230,3946.0,459.0
231,3945.0,459.0
232,3600.0,512.0
233,3599.0,513.0
234,3453.0,637.0
235,3642.0,699.0
236,3867.0,697.0
237,3868.0,697.0
238,3868.0,697.0
239,3867.0,697.0
240,3642.0,699.0
241,3453.0,637.0
242,3451.0,637.0
243,2971.0,628.0
244,2968.0,628.0
245,2968.0,628.0
246,2968.0,628.0
247,2968.0,628.0
248,2968.0,628.0
249,2969.0,629.0
,,,Distance,32762.93176
