38,3060.0,781.0
66,3023.0,871.0
8,2982.0,949.0
52,2901.0,920.0
46,2740.0,1101.0
23,3332.0,1049.0
42,3535.0,1112.0
22,3918.0,1217.0
58,3805.0,1619.0
29,3786.0,1862.0
36,3373.0,1902.0
67,3248.0,1906.0
75,3220.0,1945.0
7,2927.0,1777.0
74,3007.0,1524.0
61,2834.0,1512.0
76,2356.0,1568.0
72,2374.0,1944.0
57,2214.0,1977.0
31,2050.0,1833.0
99,1994.0,1852.0
78,2028.0,1736.0
45,1787.0,1902.0
33,1646.0,1817.0
14,1623.0,1723.0
68,1632.0,1742.0
65,1768.0,1578.0
80,2221.0,1578.0
12,571.0,1982.0
28,394.0,1944.0
47,555.0,1753.0
21,386.0,1616.0
82,1082.0,1561.0
56,149.0,1629.0
95,80.0,1533.0
10,464.0,1302.0
9,555.0,1121.0
55,401.0,980.0
26,241.0,1069.0
87,235.0,1059.0
20,778.0,1282.0
25,811.0,1295.0
18,1109.0,1196.0
85,1264.0,1090.0
59,1179.0,969.0
6,1009.0,1001.0
40,1021.0,962.0
83,997.0,942.0
3,981.0,848.0
86,1699.0,1294.0
96,1677.0,1238.0
16,1725.0,927.0
69,2223.0,990.0
64,1393.0,859.0
63,1819.0,814.0
15,2067.0,694.0
54,1766.0,692.0
91,1766.0,678.0
77,1604.0,706.0
43,1529.0,581.0
39,1828.0,456.0
73,1962.0,389.0
71,1541.0,354.0
4,1346.0,408.0
44,1203.0,385.0
93,1272.0,246.0
60,1017.0,333.0
53,931.0,512.0
5,781.0,670.0
92,240.0,619.0
48,47.0,363.0
2,202.0,233.0
37,460.0,267.0
62,634.0,294.0
19,366.0,339.0
100,278.0,165.0
30,264.0,36.0
35,547.0,25.0
51,387.0,199.0
84,2334.0,523.0
41,2347.0,388.0
24,2597.0,349.0
27,2658.0,360.0
88,2592.0,248.0
13,2656.0,128.0
79,2581.0,121.0
1,2995.0,264.0
50,3062.0,329.0
94,3503.0,301.0
32,3538.0,125.0
97,3766.0,154.0
98,3946.0,459.0
49,3935.0,540.0
17,3600.0,459.0
90,3599.0,514.0
11,3452.0,637.0
89,3642.0,699.0
70,3868.0,697.0
34,2993.0,624.0
81,2944.0,632.0
,,,Distance,28482.31472
