0,0.99999,0.22195
1,0.99965,0.22189
2,0.91119,0.24911
3,0.9112,0.22227
4,0.88656,0.14104
5,0.95357,0.06622
6,0.9536,0.06586
7,0.89523,0.05134
8,0.77347,0.15503
9,0.75594,0.12221
10,0.65295,0.11384
11,0.65932,0.051
12,0.66031,0.05134
13,0.66183,0.16808
14,0.66155,0.16837
15,0.59003,0.18559
16,0.58657,0.25427
17,0.58628,0.25427
18,0.4911,0.1865
19,0.38038,0.28432
20,0.30848,0.37461
21,0.23983,0.42066
22,0.23956,0.42065
23,0.24656,0.47494
24,0.24702,0.49727
25,0.27266,0.59815
26,0.41778,0.62055
27,0.42363,0.64808
28,0.42392,0.64847
29,0.55745,0.79325
30,0.59205,0.78847
31,0.59205,0.78847
32,0.55749,0.79354
33,0.44163,0.79356
34,0.44132,0.79372
35,0.40547,0.87216
36,0.40536,0.87251
37,0.40572,0.87254
38,0.50788,0.87429
39,0.50808,0.87441
40,0.50681,0.92837
41,0.50675,0.92888
42,0.55576,0.99719
43,0.5967,0.98063
44,0.59717,0.97993
45,0.71458,0.76051
46,0.75903,0.76595
47,0.75911,0.76635
48,0.73885,0.89513
49,0.8193,0.96531
50,0.81544,0.97656
51,0.81959,0.96568
52,0.85308,0.9591
53,0.95876,0.93848
54,0.96383,0.81476
55,0.96383,0.81476
56,0.95876,0.93848
57,0.85307,0.95912
58,0.81555,0.97652
59,0.81539,0.9767
60,0.8193,0.96531
61,0.73885,0.89513
62,0.75897,0.76634
63,0.71493,0.75986
64,0.71445,0.76049
65,0.59705,0.97998
66,0.55591,0.99739
67,0.55564,0.99724
68,0.50674,0.92889
69,0.50658,0.92869
70,0.50657,0.9287
71,0.50591,0.92911
72,0.44639,0.95906
73,0.4462,0.95903
74,0.41017,0.91568
75,0.40539,0.87271
76,0.40536,0.87251
77,0.40536,0.87251
78,0.40539,0.87271
79,0.40955,0.91576
80,0.13522,0.99975
81,0.1344,1.0
82,0.13426,0.99994
83,0.08918,0.98066
84,0.089,0.98058
85,0.089,0.98058
86,0.08916,0.9802
87,0.13012,0.88304
88,0.08691,0.81313
89,0.02629,0.81946
90,0.00852,0.77071
91,0.00846,0.77057
92,0.00852,0.77071
93,0.02611,0.81948
94,0.02634,0.8196
95,0.08691,0.81313
96,0.13047,0.88265
97,0.26518,0.78507
98,0.26531,0.7846
99,0.192,0.64606
100,0.19171,0.64563
101,0.19145,0.6456
102,0.10717,0.65233
103,0.13017,0.56008
104,0.09079,0.48822
105,0.04913,0.53076
106,0.04899,0.53092
107,0.04899,0.53092
108,0.04899,0.53092
109,0.04899,0.53092
110,0.04899,0.53092
111,0.04913,0.53076
112,0.09079,0.48822
113,0.13017,0.56008
114,0.10717,0.65233
115,0.19145,0.6456
116,0.19193,0.64553
117,0.2722,0.59821
118,0.24701,0.49738
119,0.24695,0.49678
120,0.24669,0.4756
121,0.24665,0.47533
122,0.24665,0.47533
123,0.24665,0.47533
124,0.24665,0.47533
125,0.24665,0.47533
126,0.24685,0.47551
127,0.29794,0.48118
128,0.25813,0.5392
129,0.41796,0.62026
130,0.41849,0.62026
131,0.62497,0.38633
132,0.5179,0.34212
133,0.45676,0.22037
134,0.38325,0.16835
135,0.33307,0.19557
136,0.24903,0.1579
137,0.22669,0.24883
138,0.18805,0.32937
139,0.04968,0.30332
140,1.8E-4,0.17284
141,0.03972,0.10634
142,0.05954,0.07224
143,0.08191,0.16023
144,0.15028,0.13754
145,0.15037,0.1374
146,0.10597,0.1236
147,0.08713,0.08892
148,0.05959,0.07154
149,0.05567,0.00588
150,0.05594,0.0056
151,0.12809,1.0E-5
152,0.12809,1.0E-5
153,0.05594,0.0056
154,0.05567,0.00588
155,0.05959,0.07154
156,0.08713,0.08892
157,0.10597,0.1236
158,0.15037,0.1374
159,0.15028,0.13754
160,0.08191,0.16023
161,0.05954,0.07224
162,0.03972,0.10634
163,1.8E-4,0.17284
164,0.04968,0.30332
165,0.18805,0.32937
166,0.22669,0.24883
167,0.24869,0.15775
168,0.24878,0.15739
169,0.24897,0.15749
170,0.29641,0.18391
171,0.29654,0.18382
172,0.31415,0.11307
173,0.31422,0.11309
174,0.3332,0.19548
175,0.38303,0.1682
176,0.3835,0.16817
177,0.49073,0.18605
178,0.4567,0.22029
179,0.38038,0.28411
180,0.39938,0.34783
181,0.44075,0.33728
182,0.44088,0.33724
183,0.44088,0.33724
184,0.44085,0.33767
185,0.43066,0.4607
186,0.43067,0.4609
187,0.49182,0.37437
188,0.51773,0.34202
189,0.44111,0.33726
190,0.44075,0.33728
191,0.39938,0.34783
192,0.38049,0.28401
193,0.4911,0.18649
194,0.58629,0.25406
195,0.59003,0.18559
196,0.66155,0.16838
197,0.66205,0.16844
198,0.66183,0.16808
199,0.6603,0.05133
200,0.65902,0.05075
201,0.65896,0.05074
202,0.65923,0.05098
203,0.65295,0.11384
204,0.75594,0.12221
205,0.77347,0.15503
206,0.89523,0.05134
207,0.9536,0.06586
208,0.95357,0.06622
209,0.88656,0.14104
210,0.9112,0.22227
211,0.91119,0.24911
212,0.99965,0.22189
213,0.99999,0.22195
214,0.99715,0.26323
215,0.98006,0.34306
216,0.97977,0.34339
217,0.92205,0.34434
218,0.87349,0.31285
219,0.87281,0.31271
220,0.74983,0.30808
221,0.74921,0.30815
222,0.74928,0.30839
223,0.7727,0.38624
224,0.76323,0.43226
225,0.73351,0.45867
226,0.69078,0.54964
227,0.69081,0.54967
228,0.75178,0.47182
229,0.75233,0.47179
230,0.84264,0.52332
231,0.99252,0.60892
232,0.99262,0.60899
233,0.89466,0.55547
234,0.84245,0.52321
235,0.75226,0.47174
236,0.73362,0.45847
237,0.7335,0.45838
238,0.73363,0.45829
239,0.76323,0.43226
240,0.7727,0.38624
241,0.74928,0.30839
242,0.74921,0.30815
243,0.74983,0.30808
244,0.87281,0.31271
245,0.87349,0.31285
246,0.92205,0.34434
247,0.97977,0.34339
248,0.98006,0.34306
249,0.99715,0.26323
,,,Distance,13.85653
