0,0.96926,0.658
1,0.97092,0.66023
2,0.97034,0.66106
3,0.91908,0.73203
4,0.91911,0.73302
5,0.96781,0.7878
6,0.96857,0.78868
7,0.96787,0.79047
8,0.86177,0.96234
9,0.85974,0.96363
10,0.64026,0.99977
11,0.63804,0.99864
12,0.50086,0.78184
13,0.50034,0.77944
14,0.55521,0.61081
15,0.55453,0.61029
16,0.39043,0.69434
17,0.38888,0.69514
18,0.38568,0.69675
19,0.04294,0.86945
20,0.02815,0.86599
21,0.02692,0.86548
22,0.02677,0.86541
23,0.02609,0.86509
24,0.01905,0.85966
25,1.2E-4,0.59918
26,1.7E-4,0.59629
27,0.02761,0.39151
28,0.02778,0.38837
29,0.02778,0.08818
30,0.0278,0.08538
31,0.03033,0.08458
32,0.303,7.9E-4
33,0.30555,2.0E-5
34,0.30759,0.00125
35,0.52538,0.1343
36,0.36298,0.29186
37,0.49755,0.31914
38,0.4988,0.32067
39,0.4729,0.40034
40,0.47263,0.40118
41,0.4729,0.40034
42,0.4988,0.32067
43,0.49755,0.31914
44,0.363,0.29187
45,0.52813,0.13452
46,0.74863,0.0372
47,0.75153,0.03719
48,0.99769,0.13325
49,0.99998,0.13415
50,1.0,0.13583
51,0.99999,0.31595
52,0.99863,0.31774
53,0.77916,0.42616
54,0.77898,0.42826
,,,Distance,5.10208
