10,163.0,236.0
8,161.0,242.0
6,163.0,247.0
3,159.0,261.0
2,151.0,264.0
7,146.0,246.0
11,148.0,232.0
9,142.0,239.0
4,130.0,254.0
5,128.0,252.0
12,128.0,231.0
14,129.0,214.0
20,129.0,189.0
22,139.0,182.0
18,147.0,193.0
17,141.0,206.0
15,146.0,208.0
1,145.0,215.0
21,155.0,185.0
19,164.0,193.0
16,164.0,208.0
13,156.0,217.0
,,,Distance,305.46085
