0,0.95018,0.71579
1,0.95335,0.72789
2,0.9534,0.72841
3,0.9534,0.72844
4,0.9534,0.72844
5,0.9534,0.72846
6,0.95334,0.72889
7,0.95116,0.73872
8,0.86165,0.95855
9,0.85664,0.96268
10,0.64417,0.99881
11,0.63828,0.99566
12,0.47199,0.73846
13,0.46192,0.72038
14,0.54107,0.62707
15,0.54104,0.62705
16,0.46068,0.71942
17,0.45529,0.72193
18,0.43173,0.7197
19,0.03737,0.86274
20,0.02785,0.8653
21,0.02762,0.86534
22,0.02762,0.86534
23,0.02758,0.86521
24,0.02652,0.85933
25,8.4E-4,0.59816
26,9.9E-4,0.59048
27,0.0268,0.39747
28,0.02734,0.38929
29,0.02787,0.09186
30,0.02801,0.08551
31,0.03367,0.08364
32,0.30019,0.00216
33,0.30605,5.6E-4
34,0.31082,0.00347
35,0.52249,0.13806
36,0.44592,0.32578
37,0.44612,0.33433
38,0.44641,0.33483
39,0.44645,0.33487
40,0.44645,0.33487
41,0.44645,0.33487
42,0.44642,0.33484
43,0.44617,0.33436
44,0.44652,0.32603
45,0.52942,0.13831
46,0.74606,0.03857
47,0.75289,0.03863
48,0.99474,0.14773
49,0.9996,0.1526
50,0.99974,0.1603
51,0.99931,0.307
52,0.99583,0.31235
53,0.7816,0.42494
54,0.78085,0.43067
,,,Distance,4.53448
