12,54.0,62.0
5,64.0,60.0
6,68.0,58.0
10,71.0,71.0
9,74.0,78.0
7,83.0,69.0
8,87.0,76.0
13,54.0,67.0
11,58.0,69.0
14,37.0,84.0
15,41.0,94.0
16,2.0,99.0
19,25.0,62.0
18,22.0,60.0
20,18.0,54.0
17,7.0,64.0
21,4.0,50.0
22,13.0,40.0
23,18.0,40.0
24,24.0,42.0
25,25.0,38.0
28,44.0,35.0
26,41.0,26.0
27,45.0,21.0
30,62.0,32.0
1,82.0,7.0
29,58.0,35.0
4,71.0,44.0
3,83.0,46.0
2,91.0,38.0
,,,Distance,491.11995
