0,0.72135,0.56511
1,0.77533,0.69572
2,0.80866,0.77098
3,0.80933,0.77088
4,0.9099,0.6749
5,0.95455,0.74915
6,0.95489,0.74972
7,0.95455,0.74914
8,0.90973,0.67451
9,0.77609,0.69438
10,0.77596,0.40375
11,0.91,0.42364
12,0.99955,0.33738
13,0.99949,0.33528
14,0.89963,0.00251
15,0.89887,3.0E-5
16,0.89716,0.00206
17,0.66933,0.2747
18,0.63531,0.29936
19,0.47272,0.3043
20,0.47082,0.30458
21,0.25447,0.35509
22,0.2502,0.35949
23,0.25005,0.35976
24,0.24866,0.36049
25,0.17407,0.35878
26,0.13327,0.35942
27,0.0232,0.46761
28,0.05663,0.61826
29,0.17963,0.51203
30,0.23951,0.58532
31,0.241,0.58656
32,0.24484,0.59019
33,0.39274,0.83627
34,0.43698,0.94551
35,0.0022,0.99972
36,0.00197,0.99918
37,0.39055,0.83654
38,0.24481,0.59018
39,0.241,0.58656
40,0.23951,0.58532
41,0.17963,0.51203
42,0.05663,0.61826
43,0.02319,0.46761
44,0.13244,0.35942
45,0.13679,0.3587
46,0.17411,0.35878
47,0.24866,0.36049
48,0.25004,0.35977
49,0.25008,0.35971
50,0.25025,0.35934
51,0.25486,0.35154
52,0.43788,0.20655
53,0.43916,0.20539
54,0.48096,0.15482
55,0.4814,0.1543
56,0.4825,0.15537
57,0.63597,0.29818
58,0.66653,0.27829
59,0.7745,0.40234
60,0.72815,0.55999
61,0.72247,0.56358
62,0.71129,0.56884
63,0.58563,0.60499
64,0.58461,0.6067
65,0.59468,0.65248
66,0.61157,0.66448
67,0.61381,0.66578
68,0.61398,0.66588
69,0.61381,0.66578
70,0.61157,0.66448
71,0.59468,0.65248
72,0.58461,0.6067
73,0.58563,0.60499
74,0.71123,0.56888
,,,Distance,6.62429
