0,0.5858,0.6064
1,0.71512,0.567
2,0.72334,0.56417
3,0.77537,0.69577
4,0.80913,0.77039
5,0.90991,0.67494
6,0.9545,0.74907
7,0.95486,0.74966
8,0.9545,0.74907
9,0.90991,0.67494
10,0.80913,0.77039
11,0.77533,0.69579
12,0.71493,0.5681
13,0.58586,0.6072
14,0.58892,0.6409
15,0.60971,0.66319
16,0.61353,0.66553
17,0.61383,0.66571
18,0.61378,0.66568
19,0.61271,0.66509
20,0.59735,0.65853
21,0.39453,0.8366
22,0.43798,0.94509
23,0.43796,0.9451
24,0.3915,0.83834
25,0.00299,0.99877
26,3.0E-5,0.99997
27,4.2E-4,0.99711
28,0.05572,0.62072
29,0.02264,0.46818
30,0.02265,0.46816
31,0.05664,0.61825
32,0.1797,0.51214
33,0.24071,0.58614
34,0.24186,0.58711
35,0.24188,0.58712
36,0.24186,0.58711
37,0.24071,0.58613
38,0.18065,0.51083
39,0.2467,0.36441
40,0.24948,0.35867
41,0.24791,0.35927
42,0.16937,0.35874
43,0.13263,0.3587
44,0.13263,0.3587
45,0.16937,0.35874
46,0.24791,0.35926
47,0.2496,0.35842
48,0.24965,0.35838
49,0.24965,0.35836
50,0.24979,0.35817
51,0.25425,0.35421
52,0.47062,0.30407
53,0.43943,0.2058
54,0.48064,0.1552
55,0.4811,0.15465
56,0.48064,0.1552
57,0.43944,0.2058
58,0.47257,0.30379
59,0.6363,0.29862
60,0.66868,0.27516
61,0.89712,0.0021
62,0.89887,4.0E-5
63,0.89964,0.00255
64,0.99948,0.33525
65,0.99954,0.33739
66,0.91,0.42364
67,0.77596,0.40228
68,0.77472,0.40155
69,0.66528,0.27922
70,0.63798,0.29965
71,0.72448,0.56068
72,0.71526,0.56692
73,0.5858,0.6064
74,0.58461,0.60736
,,,Distance,6.00918
