0,0.86632,0.49017
1,0.81811,0.43778
2,0.86346,0.49265
3,0.81787,0.54709
4,0.81896,0.54768
5,0.97852,0.57194
6,0.98062,0.57223
7,0.97975,0.57352
8,0.91573,0.66351
9,0.9148,0.6648
10,0.91283,0.66516
11,0.7616,0.68128
12,0.75914,0.68163
13,0.75913,0.68167
14,0.76123,0.68399
15,0.89515,0.82546
16,0.89767,0.82811
17,0.89932,0.82972
18,0.98227,0.91066
19,0.98401,0.91465
20,0.9982,0.99011
21,0.9985,0.99171
22,0.99818,0.99006
23,0.98265,0.91245
24,0.89784,0.83134
25,0.81193,0.91897
26,0.8108,0.92008
27,0.8087,0.91879
28,0.63807,0.80913
29,0.63606,0.80955
30,0.64981,0.96725
31,0.64977,0.96978
32,0.64971,0.96984
33,0.64748,0.97053
34,0.55588,0.9986
35,0.55446,0.999
36,0.55294,0.99775
37,0.44776,0.89277
38,0.38239,0.97997
39,0.38109,0.9817
40,0.38109,0.9817
41,0.38237,0.97995
42,0.44646,0.89137
43,0.44611,0.88875
44,0.34632,0.77857
45,0.34616,0.77581
46,0.43083,0.66748
47,0.43024,0.66642
48,0.27803,0.65127
49,0.27618,0.65108
50,0.27697,0.6526
51,0.34235,0.77617
52,0.19345,0.81955
53,0.20506,0.89445
54,0.20531,0.89613
55,0.20291,0.89634
56,0.00243,0.92034
57,4.0E-5,0.9206
58,6.3E-4,0.91839
59,0.05285,0.73349
60,0.18942,0.81634
61,0.18943,0.8163
62,0.05346,0.7312
63,0.05259,0.72829
64,0.1163,0.57146
65,0.11547,0.56759
66,0.03974,0.5118
67,0.03808,0.51058
68,0.03808,0.51058
69,0.03974,0.5118
70,0.1155,0.56751
71,0.11853,0.56651
72,0.20684,0.42933
73,0.21107,0.42869
74,0.44739,0.52869
75,0.63064,0.56065
76,0.56872,0.64156
77,0.55415,0.72293
78,0.63304,0.8048
79,0.55415,0.72293
80,0.56876,0.64154
81,0.63358,0.55998
82,0.63234,0.55854
83,0.44944,0.52819
84,0.34926,0.41343
85,0.20727,0.42573
86,0.00254,0.303
87,1.0E-4,0.30151
88,0.00123,0.29982
89,0.0971,0.16151
90,0.10587,0.15046
91,0.10917,0.14635
92,0.11424,0.1363
93,9.3E-4,0.00111
94,9.4E-4,0.0011
95,0.11511,0.13523
96,0.11436,0.14
97,0.12615,0.12727
98,0.27389,0.06433
99,0.2757,0.06359
100,0.27712,0.06598
101,0.39274,0.26647
102,0.44211,0.41261
103,0.44284,0.41502
104,0.44817,0.52787
105,0.44808,0.52973
106,0.44806,0.52974
107,0.44683,0.52796
108,0.34989,0.41256
109,0.26197,0.32223
110,0.26032,0.32045
111,0.26034,0.3204
112,0.26277,0.31938
113,0.3917,0.26771
114,0.43168,0.2589
115,0.44522,0.25595
116,0.44666,0.25437
117,0.44008,0.1511
118,0.43946,0.14874
119,0.43951,0.14871
120,0.44207,0.14926
121,0.52945,0.1571
122,0.5311,0.15695
123,0.53237,0.15529
124,0.58516,0.06786
125,0.58609,0.06649
126,0.58778,0.06626
127,0.70363,0.06353
128,0.70525,0.06351
129,0.7082,0.06443
130,0.92745,0.14165
131,0.93094,0.14287
132,0.93096,0.14291
133,0.92882,0.14441
134,0.79431,0.23821
135,0.79261,0.23952
136,0.79196,0.24104
137,0.74577,0.35301
138,0.74483,0.35665
139,0.68849,0.45736
140,0.6065,0.38339
141,0.60533,0.38237
142,0.60649,0.38341
143,0.68749,0.45918
144,0.68968,0.45857
145,0.74627,0.35855
146,0.81615,0.43402
147,0.95642,0.42777
148,0.9159,0.33874
149,0.91524,0.33731
150,0.91593,0.33874
151,0.95871,0.4275
152,0.95769,0.43013
,,,Distance,9.75535
