34,50.0,40.0
46,51.0,42.0
52,54.0,38.0
27,55.0,34.0
13,62.0,35.0
54,67.0,41.0
8,55.0,45.0
35,55.0,50.0
19,62.0,48.0
14,62.0,57.0
59,70.0,64.0
66,57.0,72.0
11,55.0,65.0
65,50.0,70.0
38,47.0,66.0
53,55.0,57.0
7,50.0,50.0
4,45.0,35.0
75,40.0,37.0
68,38.0,33.0
17,33.0,44.0
40,30.0,50.0
12,35.0,51.0
72,35.0,60.0
58,40.0,60.0
10,40.0,66.0
31,31.0,76.0
39,30.0,60.0
9,26.0,59.0
32,22.0,53.0
44,21.0,48.0
50,15.0,56.0
18,9.0,56.0
25,17.0,64.0
55,10.0,70.0
3,21.0,45.0
16,21.0,36.0
49,12.0,38.0
24,7.0,43.0
23,11.0,28.0
56,6.0,25.0
43,16.0,19.0
41,12.0,17.0
42,15.0,14.0
64,15.0,5.0
1,22.0,22.0
63,20.0,30.0
33,26.0,29.0
73,27.0,24.0
62,30.0,20.0
22,26.0,13.0
61,36.0,6.0
28,35.0,16.0
74,40.0,20.0
51,29.0,39.0
6,33.0,34.0
2,36.0,26.0
30,43.0,26.0
29,52.0,26.0
48,48.0,21.0
5,55.0,20.0
47,50.0,15.0
21,44.0,13.0
36,54.0,10.0
69,50.0,4.0
71,59.0,5.0
60,64.0,4.0
70,66.0,8.0
20,66.0,14.0
37,60.0,15.0
15,62.0,24.0
57,65.0,27.0
45,50.0,30.0
76,40.0,40.0
67,45.0,42.0
26,41.0,46.0
,,,Distance,653.83178
