0,0.53192,0.48145
1,0.60867,0.52737
2,0.53192,0.47922
3,0.60966,0.43078
4,0.76175,0.42778
5,0.76347,0.4243
6,0.75002,0.4712
7,0.69887,0.51106
8,0.69788,0.51209
9,0.69788,0.51208
10,0.69908,0.51054
11,0.75967,0.43917
12,0.87451,0.43059
13,0.87533,0.43091
14,0.95262,0.51335
15,0.95312,0.51389
16,0.95261,0.51452
17,0.87479,0.61022
18,0.76605,0.57031
19,0.766,0.63863
20,0.87506,0.73611
21,0.99918,0.8327
22,0.99999,0.83332
23,0.99919,0.8327
24,0.87553,0.73599
25,0.87499,0.61193
26,0.87429,0.61193
27,0.76609,0.73605
28,0.76583,0.84713
29,0.79658,0.94355
30,0.79685,0.94441
31,0.79588,0.94415
32,0.68774,0.91628
33,0.68663,0.91562
34,0.64046,0.86146
35,0.53197,0.86099
36,0.53197,0.86099
37,0.64046,0.86146
38,0.68713,0.91519
39,0.7653,0.84829
40,0.7963,0.94268
41,0.76582,0.84713
42,0.7653,0.73617
43,0.68794,0.6393
44,0.68794,0.63889
45,0.76518,0.63818
46,0.7653,0.56986
47,0.69884,0.51315
48,0.69787,0.51213
49,0.69781,0.51215
50,0.69572,0.51328
51,0.54736,0.58309
52,0.45345,0.65247
53,0.45304,0.65329
54,0.45346,0.77725
55,0.52934,0.77937
56,0.39122,0.99906
57,0.39122,0.99941
58,0.53033,0.86136
59,0.53087,0.77844
60,0.53034,0.7779
61,0.45311,0.77778
62,0.374,0.77739
63,0.31399,0.76375
64,0.25022,0.68005
65,0.23446,0.59179
66,0.23446,0.59177
67,0.24907,0.67973
68,0.14068,0.72204
69,0.04781,0.72269
70,0.17088,0.83321
71,0.06321,0.91612
72,0.06251,0.91666
73,0.06321,0.91612
74,0.17088,0.83321
75,0.04781,0.72269
76,0.14062,0.72167
77,0.23387,0.59272
78,0.23362,0.58688
79,0.09401,0.47301
80,0.01596,0.54137
81,0.01596,0.54137
82,0.09401,0.47301
83,0.23371,0.58892
84,0.25021,0.68003
85,0.31351,0.76365
86,0.31463,0.76436
87,0.37322,0.77733
88,0.37372,0.77654
89,0.37508,0.63948
90,0.37529,0.63854
91,0.42205,0.55525
92,0.42238,0.41591
93,0.45266,0.16797
94,0.37508,0.22238
95,0.37451,0.22281
96,0.37363,0.22307
97,0.25057,0.24991
98,0.25038,0.25014
99,0.32777,0.27782
100,0.32804,0.27825
101,0.31263,0.34662
102,0.31216,0.34699
103,0.21922,0.36143
104,0.23425,0.44374
105,0.23434,0.44428
106,0.23424,0.44374
107,0.21823,0.36137
108,0.07901,0.3335
109,0.0776,0.33305
110,0.00115,0.29228
111,2.5E-4,0.2918
112,2.4E-4,0.29179
113,2.5E-4,0.2918
114,0.00116,0.29227
115,0.07809,0.33222
116,0.15545,0.20843
117,0.14749,0.19994
118,0.11782,0.17865
119,0.1163,0.17803
120,0.11622,0.17801
121,0.11615,0.17798
122,0.11535,0.17769
123,0.11247,0.17562
124,0.13902,0.14088
125,0.1406,0.01475
126,0.14062,0.0139
127,0.14062,0.01473
128,0.14075,0.1398
129,0.31177,0.12507
130,0.31316,0.12459
131,0.46774,0.02841
132,0.46874,0.0278
133,0.46875,0.02959
134,0.46855,0.30485
135,0.42206,0.41635
136,0.35987,0.4857
137,0.35947,0.48615
138,0.35988,0.48571
139,0.42248,0.41747
140,0.53064,0.47584
141,0.50053,0.40291
142,0.53132,0.22335
143,0.57793,0.3052
144,0.57859,0.3049
145,0.68716,0.1541
146,0.71818,0.30567
147,0.719,0.30623
148,0.87801,0.28154
149,0.87639,0.27928
150,0.76564,0.22253
151,0.65686,0.23569
152,0.68763,0.15285
153,0.74956,0.08382
154,0.75058,0.08381
155,0.84336,0.15248
156,0.84415,0.15271
157,0.93655,0.13786
158,0.93706,0.05517
159,0.90729,0.00303
160,0.82887,0.0138
161,0.82887,0.0138
162,0.90696,0.00245
163,0.90806,0.00343
164,0.93707,0.05518
165,0.93739,0.13771
166,0.93739,0.13849
167,0.93642,0.13734
168,0.82851,0.01511
169,0.75008,0.08236
170,0.68777,3.5E-4
171,0.68711,5.3E-4
172,0.59488,0.12488
173,0.76537,0.22206
174,0.8768,0.27963
175,0.92109,0.31875
176,0.9202,0.31904
177,0.68901,0.36
178,0.68787,0.35971
179,0.65613,0.23616
180,0.59342,0.12565
181,0.45405,0.16673
182,0.53065,0.22234
183,0.46915,0.30562
184,0.50061,0.40308
185,0.60854,0.43067
186,0.53165,0.48044
187,0.5469,0.5824
188,0.5474,0.58272
189,0.60873,0.52781
,,,Distance,14.20944
