0,0.69649,0.51277
1,0.75029,0.46961
2,0.76444,0.41935
3,0.68868,0.35991
4,0.71808,0.30759
5,0.7652,0.41871
6,0.87471,0.43
7,0.91953,0.31935
8,0.87555,0.43043
9,0.95277,0.51351
10,0.95222,0.51369
11,0.75115,0.47011
12,0.6974,0.51442
13,0.76512,0.63679
14,0.76507,0.63747
15,0.68807,0.63888
16,0.68807,0.63932
17,0.76576,0.73567
18,0.87402,0.73611
19,0.76611,0.7366
20,0.76562,0.84649
21,0.7651,0.84768
22,0.68735,0.91577
23,0.64113,0.8617
24,0.64113,0.8617
25,0.68735,0.91577
26,0.76531,0.84833
27,0.79666,0.9438
28,0.79688,0.94443
29,0.79823,0.9437
30,0.99909,0.83383
31,0.99944,0.8329
32,0.87556,0.73599
33,0.87475,0.6113
34,0.76566,0.56972
35,0.69684,0.51401
36,0.69495,0.51368
37,0.5476,0.58289
38,0.54609,0.58278
39,0.36025,0.48656
40,0.3597,0.48644
41,0.42162,0.55559
42,0.37557,0.63856
43,0.37572,0.63899
44,0.45286,0.65301
45,0.4535,0.77722
46,0.53069,0.77825
47,0.53062,0.86127
48,0.39125,0.99938
49,0.39125,0.99938
50,0.53062,0.86127
51,0.53069,0.77825
52,0.45312,0.77778
53,0.37432,0.77751
54,0.37356,0.77742
55,0.31412,0.76425
56,0.31345,0.76379
57,0.25015,0.68025
58,0.23456,0.59512
59,0.24937,0.68004
60,0.14068,0.72204
61,0.04787,0.72272
62,0.17083,0.83321
63,0.06299,0.91629
64,0.06299,0.91629
65,0.17083,0.83321
66,0.04787,0.72272
67,0.14061,0.72165
68,0.23386,0.59355
69,0.23438,0.58924
70,0.23437,0.58899
71,0.23359,0.5855
72,0.09403,0.47304
73,0.01598,0.54136
74,0.01598,0.54135
75,0.09403,0.47241
76,0.23373,0.44449
77,0.23366,0.44387
78,0.0788,0.33382
79,0.07776,0.33314
80,5.8E-4,0.29198
81,6.0E-5,0.29169
82,7.0E-4,0.29095
83,0.09607,0.18024
84,0.09707,0.17929
85,0.09753,0.17892
86,0.13977,0.13971
87,0.14062,0.01445
88,0.14062,0.01446
89,0.14005,0.13984
90,0.15557,0.20726
91,0.15612,0.20783
92,0.25004,0.2503
93,0.31205,0.34575
94,0.2192,0.36111
95,0.2192,0.36111
96,0.31239,0.34588
97,0.32793,0.27796
98,0.25111,0.25008
99,0.37384,0.22307
100,0.37417,0.22245
101,0.31278,0.12543
102,0.3132,0.12457
103,0.46771,0.02843
104,0.46874,0.02779
105,0.46865,0.0287
106,0.45321,0.16607
107,0.45349,0.16693
108,0.53093,0.22229
109,0.46879,0.30562
110,0.42243,0.41612
111,0.42271,0.41689
112,0.53072,0.47794
113,0.53124,0.48
114,0.53124,0.47999
115,0.53107,0.47751
116,0.50041,0.40318
117,0.57777,0.30597
118,0.57846,0.30522
119,0.65593,0.2364
120,0.65641,0.23572
121,0.68735,0.15317
122,0.68707,0.15268
123,0.59418,0.12512
124,0.59418,0.12445
125,0.68708,5.6E-4
126,0.68778,3.8E-4
127,0.74971,0.08297
128,0.75034,0.08303
129,0.82793,0.01417
130,0.82864,0.0138
131,0.9064,0.00126
132,0.90693,0.00151
133,0.93667,0.05415
134,0.93686,0.05487
135,0.93748,0.13842
136,0.93707,0.13886
137,0.84418,0.15272
138,0.84342,0.15309
139,0.76646,0.22217
140,0.87544,0.27835
141,0.91952,0.31736
142,0.91952,0.31736
143,0.87543,0.27836
144,0.7659,0.22286
145,0.71816,0.30657
146,0.68795,0.36002
147,0.60952,0.43063
148,0.60929,0.52734
149,0.60968,0.52771
150,0.69536,0.51315
151,0.6961,0.51317
,,,Distance,10.94741
