0,0.54845,0.58118
1,0.54759,0.58201
2,0.54847,0.58117
3,0.60794,0.5272
4,0.60901,0.43162
5,0.60904,0.43082
6,0.60978,0.43145
7,0.69774,0.50872
8,0.7003,0.51064
9,0.70046,0.51062
10,0.70261,0.50873
11,0.75122,0.46389
12,0.75651,0.44841
13,0.76122,0.432
14,0.76136,0.42765
15,0.69217,0.35561
16,0.69154,0.35429
17,0.69221,0.35558
18,0.76298,0.42668
19,0.87379,0.43053
20,0.8758,0.43144
21,0.95187,0.51256
22,0.95308,0.51385
23,0.9531,0.51387
24,0.9531,0.51387
25,0.95308,0.51385
26,0.95187,0.51256
27,0.8758,0.43144
28,0.87379,0.43056
29,0.76318,0.42986
30,0.75908,0.4396
31,0.75132,0.46366
32,0.70457,0.51025
33,0.76442,0.57251
34,0.76379,0.63441
35,0.69146,0.63871
36,0.68997,0.63879
37,0.69146,0.63871
38,0.76381,0.63444
39,0.76638,0.57429
40,0.87322,0.61181
41,0.76681,0.7346
42,0.76568,0.73595
43,0.76683,0.73598
44,0.87515,0.73737
45,0.99769,0.83156
46,0.99996,0.8333
47,0.99996,0.8333
48,0.99769,0.83159
49,0.87516,0.73884
50,0.76763,0.84531
51,0.76618,0.84909
52,0.79624,0.94256
53,0.7968,0.94431
54,0.7968,0.94431
55,0.79621,0.94258
56,0.76467,0.8504
57,0.6869,0.91375
58,0.68584,0.91458
59,0.68507,0.9137
60,0.64308,0.86404
61,0.64232,0.86315
62,0.64231,0.86313
63,0.64232,0.86315
64,0.64308,0.86404
65,0.68509,0.91369
66,0.68688,0.91371
67,0.76412,0.84862
68,0.76612,0.84915
69,0.79623,0.94256
70,0.79679,0.94428
71,0.79624,0.94256
72,0.76618,0.84909
73,0.76763,0.84531
74,0.87516,0.73884
75,0.99769,0.83159
76,0.99991,0.83327
77,0.99769,0.83156
78,0.87516,0.73737
79,0.768,0.73596
80,0.87352,0.73445
81,0.87496,0.61211
82,0.8741,0.61082
83,0.76639,0.57428
84,0.76381,0.63444
85,0.69146,0.63871
86,0.68997,0.63879
87,0.69146,0.63871
88,0.76379,0.63441
89,0.7644,0.57255
90,0.70223,0.51234
91,0.70043,0.51074
92,0.70038,0.5107
93,0.70037,0.51069
94,0.70037,0.51069
95,0.70037,0.5107
96,0.70037,0.5107
97,0.70027,0.51074
98,0.69744,0.51151
99,0.60978,0.52747
100,0.60792,0.52832
101,0.54845,0.58121
102,0.5462,0.58312
103,0.45313,0.65165
104,0.45113,0.65221
105,0.37822,0.63887
106,0.37702,0.63868
107,0.37702,0.63868
108,0.37822,0.63889
109,0.45118,0.6536
110,0.45353,0.77643
111,0.45454,0.77778
112,0.52811,0.77864
113,0.52936,0.77981
114,0.53122,0.85907
115,0.5294,0.86222
116,0.39211,0.99852
117,0.39064,0.99998
118,0.39064,0.99998
119,0.39211,0.99852
120,0.5294,0.86224
121,0.53124,0.86024
122,0.53124,0.85904
123,0.52938,0.77981
124,0.52933,0.77866
125,0.52811,0.77862
126,0.45454,0.77778
127,0.45353,0.77643
128,0.45117,0.65362
129,0.37727,0.64062
130,0.31898,0.763
131,0.31577,0.76337
132,0.2504,0.67928
133,0.23476,0.59387
134,0.23446,0.59017
135,0.23472,0.59383
136,0.24804,0.67857
137,0.14063,0.72176
138,0.04885,0.72221
139,0.04734,0.72222
140,0.04884,0.72224
141,0.13979,0.72342
142,0.17151,0.83215
143,0.17071,0.83419
144,0.06422,0.91535
145,0.06253,0.91665
146,0.0625,0.91667
147,0.0625,0.91667
148,0.06253,0.91665
149,0.06422,0.91535
150,0.17071,0.83419
151,0.17151,0.83215
152,0.13979,0.72342
153,0.04884,0.72224
154,0.04734,0.72222
155,0.04885,0.72221
156,0.14063,0.72176
157,0.24804,0.67857
158,0.23472,0.59382
159,0.23445,0.59
160,0.23445,0.58983
161,0.23445,0.58983
162,0.23445,0.58983
163,0.23445,0.59
164,0.23476,0.59386
165,0.2504,0.67928
166,0.31578,0.7634
167,0.31907,0.7653
168,0.3672,0.77585
169,0.36971,0.77634
170,0.36984,0.77636
171,0.36984,0.77636
172,0.36984,0.77636
173,0.36971,0.77634
174,0.3672,0.77585
175,0.31907,0.7653
176,0.31578,0.7634
177,0.2504,0.67928
178,0.23476,0.59385
179,0.23445,0.58974
180,0.23437,0.58384
181,0.23242,0.44611
182,0.09555,0.47192
183,0.0927,0.47317
184,0.01693,0.54051
185,0.01571,0.54159
186,0.01569,0.54161
187,0.01569,0.54161
188,0.01571,0.54159
189,0.01693,0.54051
190,0.09268,0.47318
191,0.09372,0.47227
192,0.09556,0.47188
193,0.23239,0.44409
194,0.23422,0.44371
195,0.23424,0.44369
196,0.23402,0.44253
197,0.21936,0.36297
198,0.2204,0.36157
199,0.31181,0.34409
200,0.31307,0.34364
201,0.31181,0.34409
202,0.2204,0.36155
203,0.21912,0.36178
204,0.21722,0.36137
205,0.08004,0.33362
206,0.07652,0.33247
207,0.00203,0.29275
208,5.5E-4,0.29196
209,5.5E-4,0.29196
210,0.00205,0.29271
211,0.07765,0.33042
212,0.15102,0.20552
213,0.15098,0.2026
214,0.11673,0.17426
215,0.11292,0.17454
216,0.11281,0.17453
217,0.11582,0.17268
218,0.13244,0.15432
219,0.13629,0.14554
220,0.14055,0.01599
221,0.14062,0.01393
222,0.14062,0.01389
223,0.14062,0.01389
224,0.14062,0.01393
225,0.14055,0.01599
226,0.13629,0.14554
227,0.13245,0.1543
228,0.11592,0.17263
229,0.11332,0.17433
230,0.11679,0.17423
231,0.15098,0.2026
232,0.15102,0.20552
233,0.07765,0.33042
234,0.00205,0.29271
235,5.8E-4,0.29197
236,0.00203,0.29275
237,0.07653,0.33244
238,0.08053,0.33185
239,0.24876,0.2511
240,0.25069,0.25028
241,0.25073,0.25027
242,0.25162,0.2506
243,0.32694,0.27791
244,0.32793,0.2782
245,0.32862,0.27731
246,0.37224,0.22549
247,0.37243,0.2231
248,0.31331,0.12632
249,0.31252,0.12503
250,0.31251,0.12501
251,0.31252,0.12503
252,0.31333,0.12631
253,0.37377,0.22199
254,0.45207,0.16768
255,0.45316,0.16692
256,0.45338,0.16508
257,0.46851,0.02996
258,0.46875,0.02781
259,0.46875,0.02778
260,0.46875,0.02778
261,0.46875,0.02781
262,0.4685,0.02997
263,0.45336,0.16509
264,0.45209,0.16768
265,0.37444,0.22342
266,0.37227,0.22551
267,0.32831,0.27835
268,0.31342,0.34236
269,0.31357,0.34612
270,0.3594,0.48439
271,0.36009,0.48638
272,0.36098,0.4874
273,0.42144,0.55521
274,0.42144,0.55521
275,0.36099,0.48739
276,0.36097,0.48545
277,0.42351,0.41797
278,0.5301,0.47651
279,0.53161,0.47896
280,0.53162,0.47895
281,0.53112,0.47617
282,0.50078,0.40642
283,0.50027,0.40543
284,0.49975,0.40412
285,0.46919,0.30666
286,0.47001,0.3056
287,0.57654,0.30526
288,0.57798,0.30525
289,0.57737,0.30413
290,0.53169,0.22323
291,0.53183,0.22129
292,0.59297,0.12662
293,0.59399,0.12513
294,0.5955,0.12556
295,0.68608,0.15369
296,0.6569,0.23495
297,0.6572,0.23672
298,0.71495,0.30977
299,0.6934,0.35088
300,0.71781,0.30986
301,0.87809,0.28329
302,0.91518,0.31355
303,0.91642,0.3146
304,0.91531,0.31362
305,0.88226,0.28425
306,0.87766,0.28081
307,0.76671,0.22292
308,0.76469,0.22155
309,0.68901,0.15297
310,0.7485,0.08336
311,0.68855,0.00144
312,0.6876,1.3E-4
313,0.68858,0.00141
314,0.75005,0.08181
315,0.8281,0.01467
316,0.82933,0.01373
317,0.83055,0.0136
318,0.90787,0.00668
319,0.91016,0.00851
320,0.93441,0.05036
321,0.9352,0.05273
322,0.93701,0.13519
323,0.93703,0.13729
324,0.93699,0.13735
325,0.935,0.13775
326,0.84481,0.15263
327,0.84382,0.1528
328,0.84382,0.1528
329,0.84481,0.15263
330,0.935,0.13775
331,0.93699,0.13735
332,0.93703,0.13729
333,0.93701,0.13519
334,0.9352,0.05273
335,0.93441,0.05036
336,0.91019,0.00854
337,0.90928,0.0071
338,0.90784,0.00664
339,0.83053,0.01361
340,0.82812,0.01466
341,0.75005,0.08181
342,0.68858,0.00141
343,0.6876,1.3E-4
344,0.68855,0.00144
345,0.7485,0.08336
346,0.68901,0.15297
347,0.76469,0.22155
348,0.76671,0.22292
349,0.87766,0.28081
350,0.88226,0.28425
351,0.91531,0.31362
352,0.91642,0.3146
353,0.91518,0.31355
354,0.87809,0.28329
355,0.71781,0.30986
356,0.6934,0.35088
357,0.71495,0.30977
358,0.6572,0.23672
359,0.6569,0.23495
360,0.68608,0.15369
361,0.5955,0.12556
362,0.59399,0.12513
363,0.59297,0.12662
364,0.53183,0.22129
365,0.53169,0.22323
366,0.57735,0.30413
367,0.57653,0.30524
368,0.47001,0.3056
369,0.46837,0.30679
370,0.42363,0.41537
371,0.42303,0.41657
372,0.42398,0.41644
373,0.4998,0.40645
374,0.5311,0.47617
375,0.53162,0.47895
376,0.53163,0.47906
377,0.53165,0.47914
378,0.5327,0.48096
379,0.60696,0.5278
,,,Distance,16.29613
