+----------------------------+
| Sean Grogan's Elastic Net  |
+----------------------------+
Beginning: 2015-04-22 23:23:39

Paramters:
inFile     ./src/data/tsp30.txt
logFile    ./src/log/tsp30_K-ALPHA0.70_log.txt
outFile    ./src/out/tsp30_K-ALPHA0.70_out.csv
alpha      2.0
beta       0.2
initK      0.2
epsilon    0.02
KAlpha     0.7
KUpdate    25.0
NeuronsFac 2.5
radius     0.5
MaxIter    10000
DispIter   100

  0: 
	 Current Distance : 2.23354
	 Worst Distance   : 0.29176
	 Current Time     : 0.03 sec

  100: 
	 Current Distance : 5.93809
	 Worst Distance   : 0.06256
	 Current Time     : 1.41 sec

  157: 
	 Current Distance : 6.89067
	 Worst Distance   : 0.01927
	 Current Time     : 2.21 sec

Success!
  Successfully completed an elastic net with
  an accuracy of 0.01927 units

 Algorithm completed on 2015-04-22 23:23:41
 Algorithm completed in 2.194sec

0,0.58545,0.60283
1,0.71387,0.56763
2,0.72452,0.56333
3,0.77524,0.69548
4,0.80864,0.77096
5,0.80889,0.7715
6,0.80958,0.77083
7,0.90944,0.67464
8,0.91045,0.6745
9,0.95457,0.74918
10,0.95499,0.74989
11,0.95499,0.74988
12,0.95454,0.74915
13,0.90952,0.67463
14,0.77566,0.69505
15,0.71361,0.5685
16,0.5856,0.60478
17,0.59505,0.65049
18,0.60224,0.65768
19,0.62293,0.67067
20,0.62369,0.67298
21,0.39454,0.8367
22,0.4379,0.94489
23,0.43818,0.94565
24,0.43516,0.94603
25,0.00304,0.99962
26,4.0E-5,0.99999
27,0.00273,0.99886
28,0.39073,0.83656
29,0.24303,0.58931
30,0.05877,0.61912
31,0.23976,0.58648
32,0.24191,0.58717
33,0.23975,0.58648
34,0.05745,0.61933
35,0.05596,0.61851
36,0.02271,0.46844
37,0.02248,0.4674
38,0.02356,0.46769
39,0.17915,0.51082
40,0.17975,0.51031
41,0.15332,0.35944
42,0.13808,0.3587
43,0.13901,0.3587
44,0.17315,0.35873
45,0.24916,0.3613
46,0.25105,0.3592
47,0.25112,0.35906
48,0.25113,0.35905
49,0.25113,0.35905
50,0.25113,0.35904
51,0.25125,0.35878
52,0.25509,0.35355
53,0.47074,0.30411
54,0.43912,0.20606
55,0.48236,0.15313
56,0.48236,0.15313
57,0.43913,0.20606
58,0.4725,0.30387
59,0.63129,0.30251
60,0.66465,0.27979
61,0.99797,0.33513
62,0.89957,0.00234
63,0.89889,3.0E-5
64,0.89957,0.00234
65,0.99798,0.33512
66,0.66789,0.27823
67,0.7754,0.40169
68,0.90974,0.42611
69,0.77566,0.40301
70,0.72327,0.56245
71,0.58545,0.60216
72,0.5935,0.64829
73,0.59815,0.65415
74,0.594,0.64905
,,,Distance,6.89067

De-Normalizing route

DONE!


 Success in writing TSP and LOG Files
 Program terminates at 2015-04-22 23:23:41
 Program completed in 2241.0sec


------------------
 T : 2.0 s
 I : 157
 D : 519.0
------------------
