1,0.75609,0.12213
2,0.03975,0.10629
3,0.23955,0.42054
4,0.33316,0.19571
5,0.18825,0.32959
6,0.24673,0.49872
7,0.73865,0.89525
8,0.75276,0.47215
9,0.13029,0.56004
10,0.10695,0.65253
11,0.8733,0.31272
12,0.13439,1.0
13,0.66915,0.05263
14,0.40421,0.86765
15,0.51808,0.34185
16,0.43037,0.46091
17,0.91126,0.22177
18,0.27238,0.59836
19,0.08182,0.16045
20,0.18748,0.64231
21,0.08695,0.81298
22,0.99282,0.6091
23,0.84252,0.52325
24,0.65401,0.16556
25,0.19595,0.64895
26,0.04976,0.53347
27,0.66966,0.17118
28,0.089,0.98058
29,0.95896,0.93868
30,0.05566,0.00562
31,0.51372,0.92386
32,0.89536,0.0511
33,0.41011,0.91569
34,0.75558,0.30608
35,0.12824,0.0
36,0.85304,0.95912
37,0.10592,0.12366
38,0.77276,0.38631
39,0.45678,0.22024
40,0.24981,0.47879
41,0.58989,0.18549
42,0.89459,0.55544
43,0.3801,0.28411
44,0.29649,0.18396
45,0.44627,0.95912
46,0.69069,0.54982
47,0.13029,0.88298
48,0.0,0.17271
49,0.99718,0.26316
50,0.77328,0.15534
51,0.0872,0.08891
52,0.73198,0.45733
53,0.22672,0.24885
54,0.44088,0.34083
55,0.09079,0.48799
56,0.02616,0.81962
57,0.55578,0.99745
58,0.96384,0.81451
59,0.29033,0.48237
60,0.24878,0.15738
61,0.7148,0.75984
62,0.15055,0.13746
63,0.45448,0.40317
64,0.34522,0.42616
65,0.4414,0.79356
66,0.76327,0.43229
67,0.82098,0.96117
68,0.40651,0.87736
69,0.55809,0.4931
70,0.97999,0.34338
71,0.38318,0.16811
72,0.59682,0.98058
73,0.49115,0.186
74,0.75917,0.76597
75,0.8138,0.98109
76,0.5922,0.78845
77,0.39933,0.34798
78,0.50808,0.8743
79,0.64991,0.04905
80,0.55758,0.79356
81,0.74301,0.31017
82,0.26545,0.78487
83,0.24365,0.46857
84,0.58656,0.25447
85,0.31213,0.5442
86,0.4237,0.64844
87,0.04822,0.52836
88,0.65273,0.11395
89,0.92203,0.3444
90,0.911,0.24987
91,0.44088,0.33367
92,0.0495,0.30353
93,0.31418,0.11293
94,0.88638,0.14103
95,0.00846,0.77057
96,0.41806,0.61983
97,0.95383,0.06592
98,1.0,0.22177
99,0.49936,0.93357
100,0.05925,0.07154
,,,Distance,0.0
